<?xml version="1.0" standalone="no"?>
<!DOCTYPE svg PUBLIC "-//W3C//DTD SVG 1.1//EN" "http://www.w3.org/Graphics/SVG/1.1/DTD/svg11.dtd" >
<svg xmlns="http://www.w3.org/2000/svg">
<metadata>Generated by IcoMoon</metadata>
<defs>
<font id="icomoon" horiz-adv-x="1024">
<font-face units-per-em="1024" ascent="960" descent="-64" />
<missing-glyph horiz-adv-x="1024" />
<glyph unicode="&#x20;" horiz-adv-x="512" d="" />
<glyph unicode="&#xe900;" glyph-name="left" d="M44.078 458.094l479.867-479.866-22.038-22.038-501.906 501.904 501.906 501.907 22.038-22.039-479.867-479.868z" />
<glyph unicode="&#xe901;" glyph-name="right" d="M959.734 458.094l-479.866 479.868 22.038 22.039 501.906-501.906-501.906-501.906-22.038 22.040 479.866 479.866z" />
<glyph unicode="&#xe902;" glyph-name="fb" d="M518.993 957.984c-276.982 0-503.605-227.027-503.605-506.64 0-252.816 184.32-462.652 425.043-500.573v353.94h-127.916v146.633h127.916v111.744c0 126.912 75.037 196.69 190.363 196.69 54.893 0 112.304-9.607 112.304-9.607v-124.891h-63.454c-62.447 0-82.088-38.934-82.088-78.878v-95.057h140.003l-22.662-146.633h-117.34v-353.94c118.672 18.816 226.734 79.61 304.679 171.404 77.943 91.796 120.634 208.543 120.365 329.169 0 279.612-226.623 506.64-503.607 506.64z" />
<glyph unicode="&#xe903;" glyph-name="vk" d="M512 960c-282.761 0-512-229.229-512-512s229.239-512 512-512c282.761 0 512 229.229 512 512s-229.239 512-512 512zM771.714 392.625c23.864-23.308 49.109-45.245 70.533-70.963 9.491-11.377 18.437-23.141 25.247-36.371 9.721-18.867 0.942-39.557-15.945-40.677l-104.892 0.020c-27.092-2.243-48.65 8.684-66.825 27.206-14.51 14.759-27.971 30.525-41.945 45.788-5.711 6.265-11.723 12.163-18.888 16.804-14.3 9.301-26.725 6.453-34.917-8.486-8.349-15.2-10.255-32.046-11.051-48.964-1.142-24.733-8.602-31.196-33.418-32.358-53.028-2.483-103.342 5.562-150.106 32.297-41.254 23.579-73.184 56.861-101.007 94.543-54.18 73.455-95.674 154.076-132.957 237.013-8.391 18.678-2.252 28.672 18.354 29.059 34.234 0.659 68.468 0.575 102.704 0.031 13.932-0.22 23.151-8.192 28.503-21.338 18.5-45.517 41.18-88.823 69.601-128.988 7.574-10.696 15.305-21.359 26.315-28.913 12.151-8.339 21.412-5.583 27.143 7.982 3.666 8.622 5.248 17.841 6.043 27.080 2.724 31.648 3.050 63.285-1.666 94.805-2.932 19.726-14.025 32.464-33.69 36.193-10.015 1.896-8.547 5.605-3.676 11.325 8.453 9.888 16.374 16.007 32.201 16.007l118.513 0.020c18.678-3.666 22.868-12.047 25.404-30.862l0.104-131.7c-0.22-7.281 3.656-28.861 16.73-33.626 10.476-3.458 17.389 4.944 23.653 11.575 28.421 30.16 48.671 65.756 66.804 102.6 8.004 16.247 14.908 33.062 21.612 49.906 4.987 12.455 12.739 18.584 26.796 18.374l114.123-0.137c3.362 0 6.777-0.031 10.109-0.608 19.234-3.289 24.503-11.564 18.553-30.327-9.366-29.478-27.563-54.033-45.35-78.652-19.065-26.356-39.4-51.791-58.276-78.263-17.348-24.199-15.976-36.383 5.562-57.397z" />
<glyph unicode="&#xe904;" glyph-name="insta_btn" d="M414 448c0-54.125 43.875-98 98-98s98 43.875 98 98c0 54.125-43.875 98-98 98s-98-43.875-98-98zM282.812 621.392c4.712 12.766 12.227 24.32 21.992 33.804 9.486 9.766 21.031 17.282 33.806 21.992 10.359 4.024 25.923 8.813 54.586 10.119 31.008 1.413 40.305 1.719 118.804 1.719 78.508 0 87.805-0.297 118.804-1.712 28.663-1.312 44.235-6.101 54.586-10.126 12.774-4.71 24.329-12.227 33.806-21.992 9.766-9.484 17.28-21.031 21.999-33.804 4.024-10.359 8.813-25.929 10.117-54.595 1.415-31 1.719-40.296 1.719-118.804 0-78.5-0.304-87.796-1.719-118.804-1.304-28.663-6.093-44.227-10.117-54.586-4.719-12.773-12.227-24.32-21.992-33.804-9.484-9.766-21.031-17.282-33.804-21.992-10.359-4.031-25.931-8.82-54.595-10.126-31-1.413-40.289-1.71-118.796-1.71-78.517 0-87.813 0.297-118.806 1.71-28.663 1.306-44.233 6.095-54.593 10.126-25.641 9.89-45.906 30.155-55.798 55.796-4.023 10.359-8.812 25.923-10.124 54.586-1.415 31.008-1.712 40.305-1.712 118.804 0 78.508 0.297 87.805 1.712 118.804 1.304 28.665 6.093 44.235 10.124 54.595zM512 297.033c83.383 0 150.977 67.586 150.977 150.968s-67.594 150.968-150.977 150.968c-83.376 0-150.968-67.586-150.968-150.968s67.593-150.968 150.968-150.968zM355.062 569.658c19.485 0 35.282 15.797 35.282 35.28 0 19.485-15.797 35.282-35.282 35.282-19.483 0-35.28-15.797-35.28-35.282 0.007-19.483 15.797-35.28 35.28-35.28zM512 960c282.726 0 512-229.274 512-512s-229.274-512-512-512c-282.726 0-512 229.274-512 512s229.274 512 512 512zM219.773 326.789c1.423-31.297 6.4-52.664 13.665-71.368 15.273-39.492 46.491-70.711 85.984-85.984 18.697-7.265 40.071-12.235 71.359-13.665 31.351-1.428 41.368-1.773 121.211-1.773 79.852 0 89.859 0.345 121.219 1.773 31.288 1.43 52.664 6.4 71.359 13.665 19.625 7.383 37.391 18.953 52.079 33.913 14.952 14.681 26.523 32.454 33.906 52.070 7.265 18.697 12.242 40.071 13.664 71.359 1.446 31.36 1.782 41.376 1.782 121.219s-0.336 89.859-1.773 121.211c-1.423 31.297-6.391 52.664-13.657 71.368-7.383 19.616-18.961 37.39-33.922 52.070-14.681 14.961-32.454 26.53-52.070 33.913-18.703 7.265-40.071 12.235-71.368 13.665-31.351 1.428-41.368 1.773-121.211 1.773s-89.859-0.345-121.211-1.782c-31.297-1.422-52.664-6.391-71.368-13.648-19.616-7.383-37.39-18.961-52.077-33.922-14.954-14.688-26.532-32.454-33.906-52.070-7.274-18.703-12.242-40.071-13.672-71.368-1.43-31.351-1.766-41.368-1.766-121.211s0.336-89.859 1.773-121.211z" />
<glyph unicode="&#xe905;" glyph-name="Ident" d="M519 957.125c-297.521 0-517.25-212.203-517.25-510.25 0-148.454 49.501-277.124 138-368.125s215.321-143.375 364.125-143.375c297.697 0 520.75 214.314 520.75 512.625 0 148.585-50.584 276.77-140 367.125s-216.908 142-365.625 142zM508.539 785.030c45.844 0 65.229-29.103 64.769-52.563-0.378-19.33-10.004-40.188-25.269-48.975-18.166-10.457-38.366-8.693-38.366-8.693 2.794-65.302 3.21-65.288 3.21-65.288l58.847 0.966c3.068-123.718 12.929-442.771 13.468-455.381 3.262-76.341 9.861-61.595-61.563-62.736-72.338-1.156-61.228-0.538-61.228-0.538-8.5 35.803-8.96 423.327-10.654 515.401l61.714 2.272c0 0 0-0.5-3.786 65.174 0 0-22.913-0.060-40.428 9.501-11.124 6.075-21.226 23.901-22.618 47.261-1.293 21.714 20.832 53.6 61.903 53.6z" />
<glyph unicode="&#xe906;" glyph-name="ring" d="M382.033 648.348l351.917-351.917-70.383-70.383-351.917 351.917zM311.652 296.43l351.917 351.917 70.383-70.383-351.917-351.917-70.383 70.383zM514.368 960c-282.242 0-512-229.758-512-512s229.758-512 512-512c282.242 0 512 229.758 512 512s-229.758 512-512 512zM514.368 870.957c234.12 0 422.957-188.837 422.957-422.957s-188.837-422.957-422.957-422.957c-234.12 0-422.957 188.837-422.957 422.957s188.837 422.957 422.957 422.957z" />
<glyph unicode="&#xe907;" glyph-name="search" horiz-adv-x="985" d="M729.159 229.435l222.793-222.793-55.698-55.698-222.793 222.793 55.698 55.698zM452.923 960c-249.669 0-452.923-203.254-452.923-452.923s203.254-452.923 452.923-452.923c249.669 0 452.923 203.254 452.923 452.923s-203.254 452.923-452.923 452.923zM454.316 881.231c207.113 0 372.761-167.041 372.761-374.154s-167.041-374.154-374.154-374.154c-207.113 0-374.154 167.041-374.154 374.154s168.434 374.154 375.547 374.154z" />
<glyph unicode="&#xe908;" glyph-name="arrow2" horiz-adv-x="3072" d="M2581.965 900.536l407.296-407.293c24.986-24.993 24.986-65.517 0-90.51l-407.296-407.293c-24.998-24.993-65.523-24.993-90.509 0-24.998 24.993-24.998 65.517 0 90.51l298.035 298.038h-2789.491v128h2789.491l-298.035 298.039c-24.998 24.994-24.998 65.516 0 90.51 24.986 24.994 65.51 24.994 90.509 0z" />
<glyph unicode="&#xe909;" glyph-name="arrow1" horiz-adv-x="2048" d="M1557.965 900.536l407.296-407.293c24.986-24.993 24.986-65.517 0-90.51l-407.296-407.293c-24.998-24.993-65.523-24.993-90.509 0-24.998 24.993-24.998 65.517 0 90.51l298.035 298.038h-1765.491v128h1765.491l-298.035 298.039c-24.998 24.994-24.998 65.516 0 90.51 24.986 24.994 65.51 24.994 90.509 0z" />
<glyph unicode="&#xe90a;" glyph-name="X" d="M93.092 960l930.908-930.908-93.091-93.091-930.908 930.908 93.091 93.091zM0 29.091l930.908 930.908 93.091-93.091-930.908-930.908-93.091 93.091z" />
<glyph unicode="&#xe90b;" glyph-name="burger2" horiz-adv-x="1336" d="M0 960h1335.652v-133.565h-1335.652v133.565zM222.609 514.783h1113.043v-133.565h-1113.043v133.565zM534.261 69.565h801.391v-133.565h-801.391v133.565z" />
<glyph unicode="&#xe90c;" glyph-name="burger" horiz-adv-x="1336" d="M0 960h1335.652v-133.565h-1335.652v133.565zM0 514.783h1335.652v-133.565h-1335.652v133.565zM0 69.565h1335.652v-133.565h-1335.652v133.565z" />
<glyph unicode="&#xe90d;" glyph-name="plusr" d="M510.293 955.339c-281.827 0-510.293-227.031-510.293-507.088s228.466-507.088 510.293-507.088c281.828 0 510.293 227.030 510.293 507.088 0 280.057-228.464 507.088-510.293 507.088zM463.2 787.119h94.185v-655.798h-94.185z" />
<glyph unicode="&#xe90e;" glyph-name="plusb" d="M515.187 467.311v308.369h18.067v-308.369h307.153v-18.141h-307.153v-308.369h-18.067v308.369h-307.153v18.141h307.153z" />
<glyph unicode="&#xe90f;" glyph-name="plusr_b" d="M508.56 960c-281.425-1.891-508.566-230.568-508.56-512 0-282.77 229.23-512 512-512s512 229.23 512 512c0 282.77-229.23 512-512 512-1.147 0.004-2.293 0.004-3.44 0zM462.75 777.073l109.227-1.393 1.393-266.31h267.703l-1.393-89.722h-267.703v-278.848l-109.227 1.393v278.848l-257.95-1.393 1.393 89.722 257.95 1.393z" />
</font></defs></svg>