<?xml version="1.0" encoding="UTF-8" standalone="no"?>
<svg
   xmlns:dc="http://purl.org/dc/elements/1.1/"
   xmlns:cc="http://creativecommons.org/ns#"
   xmlns:rdf="http://www.w3.org/1999/02/22-rdf-syntax-ns#"
   xmlns:svg="http://www.w3.org/2000/svg"
   xmlns="http://www.w3.org/2000/svg"
   xmlns:sodipodi="http://sodipodi.sourceforge.net/DTD/sodipodi-0.dtd"
   xmlns:inkscape="http://www.inkscape.org/namespaces/inkscape"
   width="50"
   height="50"
   viewBox="0 0 50 50"
   fill="none"
   version="1.1"
   id="svg849"
   sodipodi:docname="plusr_b.svg"
   inkscape:version="1.0.1 (3bc2e813f5, 2020-09-07)">
  <metadata
     id="metadata855">
    <rdf:RDF>
      <cc:Work
         rdf:about="">
        <dc:format>image/svg+xml</dc:format>
        <dc:type
           rdf:resource="http://purl.org/dc/dcmitype/StillImage" />
        <dc:title></dc:title>
      </cc:Work>
    </rdf:RDF>
  </metadata>
  <defs
     id="defs853" />
  <sodipodi:namedview
     pagecolor="#ffffff"
     bordercolor="#666666"
     borderopacity="1"
     objecttolerance="10"
     gridtolerance="10"
     guidetolerance="10"
     inkscape:pageopacity="0"
     inkscape:pageshadow="2"
     inkscape:window-width="1708"
     inkscape:window-height="1101"
     id="namedview851"
     showgrid="false"
     inkscape:pagecheckerboard="true"
     inkscape:zoom="14.7"
     inkscape:cx="25"
     inkscape:cy="25"
     inkscape:window-x="0"
     inkscape:window-y="0"
     inkscape:window-maximized="0"
     inkscape:current-layer="svg849"
     inkscape:document-rotation="0" />
  <g
     id="g838"
     style="opacity:1">
    <g
       id="g845">
      <path
         style="color:#000000;font-style:normal;font-variant:normal;font-weight:normal;font-stretch:normal;font-size:medium;line-height:normal;font-family:sans-serif;font-variant-ligatures:normal;font-variant-position:normal;font-variant-caps:normal;font-variant-numeric:normal;font-variant-alternates:normal;font-variant-east-asian:normal;font-feature-settings:normal;font-variation-settings:normal;text-indent:0;text-align:start;text-decoration:none;text-decoration-line:none;text-decoration-style:solid;text-decoration-color:#000000;letter-spacing:normal;word-spacing:normal;text-transform:none;writing-mode:lr-tb;direction:ltr;text-orientation:mixed;dominant-baseline:auto;baseline-shift:baseline;text-anchor:start;white-space:normal;shape-padding:0;shape-margin:0;inline-size:0;clip-rule:nonzero;display:inline;overflow:visible;visibility:visible;isolation:auto;mix-blend-mode:normal;color-interpolation:sRGB;color-interpolation-filters:linearRGB;solid-color:#000000;solid-opacity:1;vector-effect:none;fill:#050000;fill-opacity:1;fill-rule:nonzero;stroke:none;stroke-width:1;stroke-linecap:butt;stroke-linejoin:miter;stroke-miterlimit:4;stroke-dasharray:none;stroke-dashoffset:0;stroke-opacity:1;color-rendering:auto;image-rendering:auto;shape-rendering:auto;text-rendering:auto;enable-background:accumulate;stop-color:#000000;stop-opacity:1"
         d="M 24.832031,0 C 11.090553,0.09232777 -3.1016756e-4,11.258212 0,25 0,38.807119 11.192881,50 25,50 38.807119,50 50,38.807119 50,25 50,11.192881 38.807119,0 25,0 24.94401,-1.880911e-4 24.888021,-1.880911e-4 24.832031,0 Z M 22.595238,8.9319728 27.928571,9 l 0.06803,13.003401 h 5.95424 7.117188 L 41,26.384354 H 27.928571 V 40 l -5.333333,-0.06803 V 26.316327 L 10,26.384354 l 0.06803,-4.380953 12.595238,-0.06803 z"
         id="path840"
         sodipodi:nodetypes="ccsscccccccccccccccc" />
    </g>
    <path
       style="color:#000000;font-style:normal;font-variant:normal;font-weight:normal;font-stretch:normal;font-size:medium;line-height:normal;font-family:sans-serif;font-variant-ligatures:normal;font-variant-position:normal;font-variant-caps:normal;font-variant-numeric:normal;font-variant-alternates:normal;font-variant-east-asian:normal;font-feature-settings:normal;font-variation-settings:normal;text-indent:0;text-align:start;text-decoration:none;text-decoration-line:none;text-decoration-style:solid;text-decoration-color:#000000;letter-spacing:normal;word-spacing:normal;text-transform:none;writing-mode:lr-tb;direction:ltr;text-orientation:mixed;dominant-baseline:auto;baseline-shift:baseline;text-anchor:start;white-space:normal;shape-padding:0;shape-margin:0;inline-size:0;clip-rule:nonzero;display:inline;overflow:visible;visibility:visible;isolation:auto;mix-blend-mode:normal;color-interpolation:sRGB;color-interpolation-filters:linearRGB;solid-color:#000000;solid-opacity:1;vector-effect:none;fill-opacity:1;fill-rule:nonzero;stroke-width:1;stroke-linecap:butt;stroke-linejoin:miter;stroke-miterlimit:4;stroke-dasharray:none;stroke-dashoffset:0;stroke-opacity:1.0;color-rendering:auto;image-rendering:auto;shape-rendering:auto;text-rendering:auto;enable-background:accumulate;stop-color:#000000;stop-opacity:1;stroke:none;"
       d="M 24.828125 -0.5 C 10.817617 -0.40586464 -0.50031624 10.989176 -0.5 25 C -0.5 39.077339 10.922661 50.5 25 50.5 C 39.077339 50.5 50.5 39.077339 50.5 25 C 50.5 10.923324 39.07838 -0.49892518 25.001953 -0.5 C 24.944844 -0.50019185 24.887187 -0.50019185 24.830078 -0.5 L 24.828125 -0.5 z M 24.833984 0.5 L 24.835938 0.5 C 24.890154 0.4998222 24.94383 0.49981787 24.998047 0.5 L 25 0.5 C 38.536899 0.5 49.5 11.463101 49.5 25 C 49.5 38.536899 38.536899 49.5 25 49.5 C 11.463101 49.5 0.5 38.536899 0.5 25 C 0.49969592 11.52791 11.362455 0.59158121 24.833984 0.5 z M 24.556641 8.5 L 24.556641 9 L 24.556641 23.556641 L 9.5 23.556641 L 9.5 25.443359 L 24.556641 25.443359 L 24.556641 40.5 L 26.443359 40.5 L 26.443359 25.443359 L 41.5 25.443359 L 41.5 23.556641 L 33.882812 23.556641 L 26.443359 23.556641 L 26.443359 8.5 L 24.556641 8.5 z "
       id="path842" />
  </g>
</svg>
